serName,name,id,reply_content,keyword,total_vote,setHeight2,setHeight1,percent
"Lao Vision",M1,29,"Thank you for voting for M1",M1,13,9.7451,490.2549,1.9490
"Lao Vision",M2,30,"Thank you for voting for M2",M2,0,0.0000,500.0000,0.0000
"Lao Vision",M3,31,"Thank you for voting for M3",M3,0,0.0000,500.0000,0.0000
"Lao Vision",M4,32,"Thank you for voting for M4",M4,0,0.0000,500.0000,0.0000
"Lao Vision",M5,33,"Thank you for voting for M5",M5,0,0.0000,500.0000,0.0000
"Lao Vision",M6,34,"Thank you for voting for M6",M6,0,0.0000,500.0000,0.0000
"Lao Vision",M7,35,"Thank you for voting for M7",M7,0,0.0000,500.0000,0.0000
"Lao Vision",M8,36,"Thank you for voting for M8",M8,0,0.0000,500.0000,0.0000
"Lao Vision",M9,37,"Thank you for voting for M9",M9,0,0.0000,500.0000,0.0000
"Lao Vision",M10,38,"Thank you for voting for M10",M10,0,0.0000,500.0000,0.0000
"Lao Vision",M11,39,"Thank you for voting for M11",M11,0,0.0000,500.0000,0.0000
"Lao Vision",M12,40,"Thank you for voting for M12",M12,0,0.0000,500.0000,0.0000
"Lao Vision",M13,41,"Thank you for voting for M13",M13,0,0.0000,500.0000,0.0000
Test,thien,42,M1,m1,11,8.2459,491.7541,1.6492
Test,rad,43,M2,m2,0,0.0000,500.0000,0.0000
"Mrs NSK VTE",M1,5,"Thank you for voting for M1",M1,264,197.9010,302.0990,39.5802
"Mrs NSK VTE",M2,6,"Thank you for voting for M2",M2,31,23.2384,476.7616,4.6477
"Mrs NSK VTE",M3,9,"Thank you for voting for M3",M3,49,36.7316,463.2684,7.3463
"Mrs NSK VTE",M4,10,"Thank you for voting for M4",M4,3,2.2489,497.7511,0.4498
"Mrs NSK VTE",M5,11,"Thank you for voting for M5",M5,0,0.0000,500.0000,0.0000
"Mrs NSK VTE",M6,12,"Thank you for voting for M6",M6,0,0.0000,500.0000,0.0000
"Mrs NSK VTE",M7,13,"Thank you for voting for M7",M7,0,0.0000,500.0000,0.0000
"Mrs NSK VTE",M8,14,"Thank you for voting for M8",M8,0,0.0000,500.0000,0.0000
"Mrs NSK VTE",M9,15,"Thank you for voting for M9",M9,93,69.7151,430.2849,13.9430
"Mrs NSK VTE",M10,16,"Thank you for voting for M10",M10,4,2.9985,497.0015,0.5997
"Mrs NSK VTE",M11,17,"Thank you for voting for M11",M11,11,8.2459,491.7541,1.6492
"Mrs NSK VTE",M12,18,"Thank you for voting for M12",M12,16,11.9940,488.0060,2.3988
"Mrs NSK VTE",M13,19,"Thank you for voting for M13",M13,5,3.7481,496.2519,0.7496
"Mrs NSK VTE",M14,20,"Thank you for voting for M14",M14,0,0.0000,500.0000,0.0000
"Mrs NSK VTE",M15,21,"Thank you for voting for M15",M15,37,27.7361,472.2639,5.5472
"Mrs NSK VTE",M16,22,"Thank you for voting for M16",M16,23,17.2414,482.7586,3.4483
"Mrs NSK VTE",M17,23,"Thank you for voting for M17",M17,1,0.7496,499.2504,0.1499
"Mrs NSK VTE",M18,24,"Thank you for voting for M18",M18,0,0.0000,500.0000,0.0000
"Mrs NSK VTE",M19,25,"Thank you for voting for M19",M19,2,1.4993,498.5007,0.2999
"Mrs NSK VTE",M20,26,"Thank you for voting for M20",M20,28,20.9895,479.0105,4.1979
"Mrs NSK VTE",M21,27,"Thank you for voting for M21",M21,0,0.0000,500.0000,0.0000
"Mrs NSK VTE",M22,28,"Thank you for voting for M22",M22,0,0.0000,500.0000,0.0000
